{
  "@quasar/testing": {
    "harnesses": [
      "e2e-cypress",
      "e2e-webdriver",
      "quality",
      "security",
      "security-antivuln"
    ]
  },
  "@quasar/testing-e2e-cypress": {
    "options": [
      "scripts"
    ]
  },
  "@quasar/testing-security": {
    "options": [
      "zap_local"
    ],
    "zapbrowser": "Chrome"
  },
  "@quasar/testing-security-antivuln": {
    "options": [
      "runOnBuild"
    ]
  }
}